{"failedCount":3,"prefixedPath":"src\/test\/java\/test\/Get.feature","packageQualifiedName":"src.test.java.test.Get","loopIndex":-1,"relativePath":"src\/test\/java\/test\/Get.feature","scenarioResults":[{"sectionIndex":0,"stepResults":[{"result":{"nanos":83554600,"millis":83.5546,"status":"passed"},"step":{"line":9,"prefix":"Given","index":0,"text":"url 'https:\/\/reqres.in\/api\/users?page=2'"}},{"result":{"nanos":787515800,"millis":787.5158,"status":"passed"},"step":{"line":10,"prefix":"When","index":1,"text":"method GET"},"stepLog":"13:19:15.494 request:\n1 > GET https:\/\/reqres.in\/api\/users?page=2\n1 > Host: reqres.in\n1 > Connection: Keep-Alive\n1 > User-Agent: Apache-HttpClient\/4.5.13 (Java\/17.0.4.1)\n1 > Accept-Encoding: gzip,deflate\n\n\n13:19:15.893 response time in milliseconds: 395\n1 < 200\n1 < Date: Thu, 29 Dec 2022 07:49:15 GMT\n1 < Content-Type: application\/json; charset=utf-8\n1 < Transfer-Encoding: chunked\n1 < Connection: keep-alive\n1 < X-Powered-By: Express\n1 < Access-Control-Allow-Origin: *\n1 < Etag: W\/\"406-ut0vzoCuidvyMf8arZpMpJ6ZRDw\"\n1 < Via: 1.1 vegur\n1 < Cache-Control: max-age=14400\n1 < CF-Cache-Status: HIT\n1 < Age: 5641\n1 < Report-To: {\"endpoints\":[{\"url\":\"https:\\\/\\\/a.nel.cloudflare.com\\\/report\\\/v3?s=mAly71ySjv8iWmOpD%2Bj0cpObykFAu6fgegGfKIDFcRYtj%2Bxmk0fl02czJqBi8ch1rkmKwnxsRRAduq%2FLP8%2F5jt8OfhwBNnTcV4MBY1gRF65fnWuMgELYv2pP8A%3D%3D\"}],\"group\":\"cf-nel\",\"max_age\":604800}\n1 < NEL: {\"success_fraction\":0,\"report_to\":\"cf-nel\",\"max_age\":604800}\n1 < Vary: Accept-Encoding\n1 < Server: cloudflare\n1 < CF-RAY: 7810f026bd6e1bcb-BOM\n{\"page\":2,\"per_page\":6,\"total\":12,\"total_pages\":2,\"data\":[{\"id\":7,\"email\":\"michael.lawson@reqres.in\",\"first_name\":\"Michael\",\"last_name\":\"Lawson\",\"avatar\":\"https:\/\/reqres.in\/img\/faces\/7-image.jpg\"},{\"id\":8,\"email\":\"lindsay.ferguson@reqres.in\",\"first_name\":\"Lindsay\",\"last_name\":\"Ferguson\",\"avatar\":\"https:\/\/reqres.in\/img\/faces\/8-image.jpg\"},{\"id\":9,\"email\":\"tobias.funke@reqres.in\",\"first_name\":\"Tobias\",\"last_name\":\"Funke\",\"avatar\":\"https:\/\/reqres.in\/img\/faces\/9-image.jpg\"},{\"id\":10,\"email\":\"byron.fields@reqres.in\",\"first_name\":\"Byron\",\"last_name\":\"Fields\",\"avatar\":\"https:\/\/reqres.in\/img\/faces\/10-image.jpg\"},{\"id\":11,\"email\":\"george.edwards@reqres.in\",\"first_name\":\"George\",\"last_name\":\"Edwards\",\"avatar\":\"https:\/\/reqres.in\/img\/faces\/11-image.jpg\"},{\"id\":12,\"email\":\"rachel.howell@reqres.in\",\"first_name\":\"Rachel\",\"last_name\":\"Howell\",\"avatar\":\"https:\/\/reqres.in\/img\/faces\/12-image.jpg\"}],\"support\":{\"url\":\"https:\/\/reqres.in\/#support-heading\",\"text\":\"To keep ReqRes free, contributions towards server costs are appreciated!\"}}\n\n"},{"result":{"nanos":21800,"millis":0.0218,"status":"passed"},"step":{"line":11,"prefix":"Then","index":2,"text":"status 200"}},{"result":{"nanos":68244200,"millis":68.2442,"status":"passed"},"step":{"line":12,"prefix":"And","index":3,"text":"print response"},"stepLog":"13:19:15.997 [print] {\n  \"page\": 2,\n  \"per_page\": 6,\n  \"total\": 12,\n  \"total_pages\": 2,\n  \"data\": [\n    {\n      \"id\": 7,\n      \"email\": \"michael.lawson@reqres.in\",\n      \"first_name\": \"Michael\",\n      \"last_name\": \"Lawson\",\n      \"avatar\": \"https:\/\/reqres.in\/img\/faces\/7-image.jpg\"\n    },\n    {\n      \"id\": 8,\n      \"email\": \"lindsay.ferguson@reqres.in\",\n      \"first_name\": \"Lindsay\",\n      \"last_name\": \"Ferguson\",\n      \"avatar\": \"https:\/\/reqres.in\/img\/faces\/8-image.jpg\"\n    },\n    {\n      \"id\": 9,\n      \"email\": \"tobias.funke@reqres.in\",\n      \"first_name\": \"Tobias\",\n      \"last_name\": \"Funke\",\n      \"avatar\": \"https:\/\/reqres.in\/img\/faces\/9-image.jpg\"\n    },\n    {\n      \"id\": 10,\n      \"email\": \"byron.fields@reqres.in\",\n      \"first_name\": \"Byron\",\n      \"last_name\": \"Fields\",\n      \"avatar\": \"https:\/\/reqres.in\/img\/faces\/10-image.jpg\"\n    },\n    {\n      \"id\": 11,\n      \"email\": \"george.edwards@reqres.in\",\n      \"first_name\": \"George\",\n      \"last_name\": \"Edwards\",\n      \"avatar\": \"https:\/\/reqres.in\/img\/faces\/11-image.jpg\"\n    },\n    {\n      \"id\": 12,\n      \"email\": \"rachel.howell@reqres.in\",\n      \"first_name\": \"Rachel\",\n      \"last_name\": \"Howell\",\n      \"avatar\": \"https:\/\/reqres.in\/img\/faces\/12-image.jpg\"\n    }\n  ],\n  \"support\": {\n    \"url\": \"https:\/\/reqres.in\/#support-heading\",\n    \"text\": \"To keep ReqRes free, contributions towards server costs are appreciated!\"\n  }\n}\n \n"},{"result":{"nanos":4160500,"millis":4.1605,"status":"passed"},"step":{"line":13,"prefix":"And","index":4,"text":"print responseStatus"},"stepLog":"13:19:16.002 [print] 200 \n"},{"result":{"nanos":1382700,"millis":1.3827,"status":"passed"},"step":{"line":14,"prefix":"And","index":5,"text":"print responseTime"},"stepLog":"13:19:16.004 [print] 395 \n"},{"result":{"nanos":2016000,"millis":2.016,"status":"passed"},"step":{"line":15,"prefix":"And","index":6,"text":"print responseHeaders"},"stepLog":"13:19:16.006 [print] {\n  \"Date\": [\n    \"Thu, 29 Dec 2022 07:49:15 GMT\"\n  ],\n  \"Content-Type\": [\n    \"application\/json; charset=utf-8\"\n  ],\n  \"Transfer-Encoding\": [\n    \"chunked\"\n  ],\n  \"Connection\": [\n    \"keep-alive\"\n  ],\n  \"X-Powered-By\": [\n    \"Express\"\n  ],\n  \"Access-Control-Allow-Origin\": [\n    \"*\"\n  ],\n  \"Etag\": [\n    \"W\/\\\"406-ut0vzoCuidvyMf8arZpMpJ6ZRDw\\\"\"\n  ],\n  \"Via\": [\n    \"1.1 vegur\"\n  ],\n  \"Cache-Control\": [\n    \"max-age=14400\"\n  ],\n  \"CF-Cache-Status\": [\n    \"HIT\"\n  ],\n  \"Age\": [\n    \"5641\"\n  ],\n  \"Report-To\": [\n    \"{\\\"endpoints\\\":[{\\\"url\\\":\\\"https:\\\\\/\\\\\/a.nel.cloudflare.com\\\\\/report\\\\\/v3?s=mAly71ySjv8iWmOpD%2Bj0cpObykFAu6fgegGfKIDFcRYtj%2Bxmk0fl02czJqBi8ch1rkmKwnxsRRAduq%2FLP8%2F5jt8OfhwBNnTcV4MBY1gRF65fnWuMgELYv2pP8A%3D%3D\\\"}],\\\"group\\\":\\\"cf-nel\\\",\\\"max_age\\\":604800}\"\n  ],\n  \"NEL\": [\n    \"{\\\"success_fraction\\\":0,\\\"report_to\\\":\\\"cf-nel\\\",\\\"max_age\\\":604800}\"\n  ],\n  \"Vary\": [\n    \"Accept-Encoding\"\n  ],\n  \"Server\": [\n    \"cloudflare\"\n  ],\n  \"CF-RAY\": [\n    \"7810f026bd6e1bcb-BOM\"\n  ],\n  \"Set-Cookie\": [\n  ]\n}\n \n"},{"result":{"nanos":1392700,"millis":1.3927,"status":"passed"},"step":{"line":16,"prefix":"And","index":7,"text":"print responseCookies"},"stepLog":"13:19:16.008 [print] {\n}\n \n"}],"executorName":"main","line":8,"name":"Get Demo 1","description":"","durationMillis":948.2883,"startTime":1672300155045,"failed":false,"refId":"[1:8]","endTime":1672300156008,"exampleIndex":-1},{"sectionIndex":1,"stepResults":[{"result":{"nanos":473000,"millis":0.473,"status":"passed"},"step":{"line":20,"prefix":"Given","index":0,"text":"path '\/users?page=2'"}},{"result":{"nanos":1240000,"errorMessage":"http call failed after 1 milliseconds for url: \/users%3Fpage=2\nsrc\/test\/java\/test\/Get.feature:21","millis":1.24,"status":"failed"},"step":{"line":21,"prefix":"When","index":1,"text":"method GET"},"stepLog":"13:19:16.015 org.apache.http.ProtocolException: Target host is not specified, http call failed after 1 milliseconds for url: \/users%3Fpage=2\n13:19:16.015 src\/test\/java\/test\/Get.feature:21\nWhen method GET\nhttp call failed after 1 milliseconds for url: \/users%3Fpage=2\nsrc\/test\/java\/test\/Get.feature:21\n"},{"result":{"nanos":0,"millis":0.0,"status":"skipped"},"step":{"line":22,"prefix":"Then","index":2,"text":"status 200"}},{"result":{"nanos":0,"millis":0.0,"status":"skipped"},"step":{"line":23,"prefix":"And","index":3,"text":"print response"}}],"line":19,"description":"","durationMillis":1.713,"failed":true,"error":"http call failed after 1 milliseconds for url: \/users%3Fpage=2\nsrc\/test\/java\/test\/Get.feature:21","executorName":"main","name":"Get Demo 2","startTime":1672300156013,"refId":"[2:19]","endTime":1672300156015,"exampleIndex":-1},{"sectionIndex":2,"stepResults":[{"result":{"nanos":483600,"millis":0.4836,"status":"passed"},"step":{"line":27,"prefix":"Given","index":0,"text":"path '\/users'"}},{"result":{"nanos":2113100,"millis":2.1131,"status":"passed"},"step":{"line":28,"prefix":"And","index":1,"text":"param page = 2"}},{"result":{"nanos":1307900,"errorMessage":"http call failed after 0 milliseconds for url: \/users?page=2\nsrc\/test\/java\/test\/Get.feature:29","millis":1.3079,"status":"failed"},"step":{"line":29,"prefix":"When","index":2,"text":"method GET"},"stepLog":"13:19:16.024 org.apache.http.ProtocolException: Target host is not specified, http call failed after 0 milliseconds for url: \/users?page=2\n13:19:16.025 src\/test\/java\/test\/Get.feature:29\nWhen method GET\nhttp call failed after 0 milliseconds for url: \/users?page=2\nsrc\/test\/java\/test\/Get.feature:29\n"},{"result":{"nanos":0,"millis":0.0,"status":"skipped"},"step":{"line":30,"prefix":"Then","index":3,"text":"status 200"}},{"result":{"nanos":0,"millis":0.0,"status":"skipped"},"step":{"line":31,"prefix":"And","index":4,"text":"print response"}}],"line":26,"description":"","durationMillis":3.9046,"failed":true,"error":"http call failed after 0 milliseconds for url: \/users?page=2\nsrc\/test\/java\/test\/Get.feature:29","executorName":"main","name":"Get Demo 3","startTime":1672300156020,"refId":"[3:26]","endTime":1672300156025,"exampleIndex":-1},{"sectionIndex":3,"stepResults":[{"result":{"nanos":172700,"millis":0.1727,"status":"passed"},"step":{"line":36,"prefix":"Given","index":0,"text":"path '\/users'"}},{"result":{"nanos":126200,"millis":0.1262,"status":"passed"},"step":{"line":37,"prefix":"And","index":1,"text":"param page = 2"}},{"result":{"nanos":817900,"errorMessage":"http call failed after 1 milliseconds for url: \/users?page=2\nsrc\/test\/java\/test\/Get.feature:38","millis":0.8179,"status":"failed"},"step":{"line":38,"prefix":"When","index":2,"text":"method GET"},"stepLog":"13:19:16.030 org.apache.http.ProtocolException: Target host is not specified, http call failed after 1 milliseconds for url: \/users?page=2\n13:19:16.030 src\/test\/java\/test\/Get.feature:38\nWhen method GET\nhttp call failed after 1 milliseconds for url: \/users?page=2\nsrc\/test\/java\/test\/Get.feature:38\n"},{"result":{"nanos":0,"millis":0.0,"status":"skipped"},"step":{"line":39,"prefix":"Then","index":3,"text":"status 200"}},{"result":{"nanos":0,"millis":0.0,"status":"skipped"},"step":{"line":40,"prefix":"And","index":4,"text":"print response"}},{"result":{"nanos":0,"millis":0.0,"status":"skipped"},"step":{"line":41,"prefix":"And","index":5,"text":"match response.data[0].first_name!=null"}},{"result":{"nanos":0,"millis":0.0,"status":"skipped"},"step":{"line":42,"prefix":"And","index":6,"text":"assert response.data.length == 6"}},{"result":{"nanos":0,"millis":0.0,"status":"skipped"},"step":{"line":43,"prefix":"And","index":7,"text":"match $.data[3].id=10"}},{"result":{"nanos":0,"millis":0.0,"status":"skipped"},"step":{"line":44,"prefix":"And","index":8,"text":"match response.data[4].last_name == 'Edwards'"}}],"line":35,"description":"","durationMillis":1.1168,"failed":true,"error":"http call failed after 1 milliseconds for url: \/users?page=2\nsrc\/test\/java\/test\/Get.feature:38","executorName":"main","name":"Get Demo 3","startTime":1672300156028,"refId":"[4:35]","endTime":1672300156030,"exampleIndex":-1}],"callDepth":0,"name":"Get API Demo","description":"","resultDate":"2022-12-29 01:19:16 pm","durationMillis":955.0227,"passedCount":1}